<svg width="41" height="40" viewBox="0 0 41 40" fill="none" xmlns="http://www.w3.org/2000/svg">
<path d="M35.5 19.8125V6.875H35.1875C30.5 6.875 25.9141 5.48438 22.0156 2.88281L20.5 1.875L19.0078 2.875C15.125 5.46875 10.5703 6.85938 5.90625 6.875H5.5V19.8125C5.5 26.4375 9.24219 32.5 15.1719 35.4609L20.5 38.125L25.8281 35.4609C31.7578 32.5 35.5 26.4375 35.5 19.8125ZM24.1484 32.1094L20.5 33.9297L16.8516 32.1094C12.1797 29.7969 9.23438 25.0234 9.25 19.8125V10.4062C13.25 9.90625 17.0938 8.53125 20.5 6.375C23.9062 8.53125 27.75 9.91406 31.75 10.4141V19.8125C31.7656 25.0234 28.8203 29.7891 24.1484 32.1094Z" fill="#A9E1FB"/>
<path d="M26.75 17.5H23.625C23.2812 17.5 23 17.2188 23 16.875V13.75C23 13.4062 22.7188 13.125 22.375 13.125H18.625C18.2812 13.125 18 13.4062 18 13.75V16.875C18 17.2188 17.7188 17.5 17.375 17.5H14.25C13.9062 17.5 13.625 17.7812 13.625 18.125V21.875C13.625 22.2188 13.9062 22.5 14.25 22.5H17.375C17.7188 22.5 18 22.7812 18 23.125V26.25C18 26.5938 18.2812 26.875 18.625 26.875H22.375C22.7188 26.875 23 26.5938 23 26.25V23.125C23 22.7812 23.2812 22.5 23.625 22.5H26.75C27.0938 22.5 27.375 22.2188 27.375 21.875V18.125C27.375 17.7812 27.0938 17.5 26.75 17.5Z" fill="#A9E1FB"/>
<path d="M20.5 38.8203L14.8906 36.0156C8.74217 32.9688 4.85155 26.6797 4.87498 19.8125V6.25H5.90623C10.4453 6.23438 14.8828 4.88281 18.664 2.35156L20.5 1.125L22.3672 2.36719C26.164 4.90625 30.625 6.25781 35.1875 6.25H36.125V19.8125C36.1484 26.6797 32.2578 32.9688 26.1094 36.0234L20.5 38.8203ZM6.12498 7.5V19.8125C6.10155 26.2109 9.71873 32.0625 15.4531 34.9062L20.5 37.4297L25.5469 34.9062C31.2812 32.0625 34.8984 26.2109 34.875 19.8125V7.5C30.1719 7.44531 25.5859 6.02344 21.6719 3.40625L20.5 2.625L19.3515 3.39063C15.4375 6.01562 10.8359 7.44531 6.12498 7.5Z" fill="#0097DC"/>
<path d="M31.8281 9.78906C27.914 9.30469 24.164 7.95313 20.8359 5.84375L20.4999 5.63281L20.164 5.84375C16.8359 7.95313 13.0781 9.30469 9.17181 9.78906L8.62494 9.85938V19.8125C8.60931 25.2578 11.6874 30.25 16.5702 32.6641L20.4999 34.625L24.4296 32.6641C29.3124 30.2422 32.3906 25.2578 32.3749 19.8125V9.85938L31.8281 9.78906ZM31.1249 19.8125C31.1406 24.7891 28.3281 29.3359 23.8671 31.5469L20.4999 33.2344L17.1327 31.5469C12.6796 29.3359 9.85931 24.7891 9.87494 19.8125V10.9531C13.6406 10.4141 17.2577 9.10156 20.4999 7.10938C23.7421 9.10156 27.3593 10.4141 31.1249 10.9531V19.8125Z" fill="#0097DC"/>
<path d="M26.75 16.875H23.625V13.75C23.625 13.0625 23.0625 12.5 22.375 12.5H18.625C17.9375 12.5 17.375 13.0625 17.375 13.75V16.875H14.25C13.5625 16.875 13 17.4375 13 18.125V21.875C13 22.5625 13.5625 23.125 14.25 23.125H17.375V26.25C17.375 26.9375 17.9375 27.5 18.625 27.5H22.375C23.0625 27.5 23.625 26.9375 23.625 26.25V23.125H26.75C27.4375 23.125 28 22.5625 28 21.875V18.125C28 17.4375 27.4375 16.875 26.75 16.875ZM26.75 21.875H23.625C22.9375 21.875 22.375 22.4375 22.375 23.125V26.25H18.625V23.125C18.625 22.4375 18.0625 21.875 17.375 21.875H14.25V18.125H17.375C18.0625 18.125 18.625 17.5625 18.625 16.875V13.75H22.375V16.875C22.375 17.5625 22.9375 18.125 23.625 18.125H26.75V21.875Z" fill="#0097DC"/>
</svg>
