<svg width="20" height="20" viewBox="0 0 20 20" fill="none" xmlns="http://www.w3.org/2000/svg">
<g clip-path="url(#clip0_38_1318)">
<path d="M9.9586 2.96484C9.98344 3.03524 9.99586 3.10563 9.99586 3.18016C9.99172 3.10563 9.98344 3.03524 9.9586 2.96484Z" fill="#A9E1FB"/>
<path d="M9.70601 2.6333C9.75984 2.67057 9.80539 2.71612 9.84266 2.76581C9.80125 2.71198 9.7557 2.66643 9.70601 2.6333Z" fill="#A9E1FB"/>
<path d="M9.85921 2.77832C9.89234 2.82387 9.91719 2.87356 9.93789 2.92325C9.91719 2.87356 9.89234 2.82387 9.85921 2.77832Z" fill="#A9E1FB"/>
<path d="M9.99172 3.17994C9.99172 3.1054 9.9793 3.03501 9.95445 2.96462C9.95031 2.94805 9.93789 2.93977 9.93375 2.92321C9.91304 2.86938 9.8882 2.82383 9.85507 2.77828C9.85093 2.77414 9.84265 2.77 9.83851 2.76172C9.7557 2.65406 9.63561 2.57538 9.50311 2.53812L1.59834 0.360063C1.31263 0.281388 1.01035 0.339359 0.774328 0.517413C0.538303 0.695466 0.401657 0.972899 0.401657 1.27104V16.7286C0.401657 17.0267 0.600415 17.2876 0.886129 17.3663L9.15528 19.6437C9.35404 19.6975 9.56936 19.6561 9.73085 19.5319C9.89648 19.4077 9.99172 19.2131 9.99172 19.006V3.17994Z" fill="#A9E1FB"/>
<path d="M9.93789 2.92334C9.94203 2.93576 9.95445 2.94818 9.95859 2.96475C9.95445 2.94818 9.94203 2.9399 9.93789 2.92334Z" fill="#A9E1FB"/>
<path d="M9.706 2.63316C9.64389 2.59175 9.57764 2.56276 9.50725 2.54206L1.59834 0.359863L9.50725 2.53792C9.57764 2.55862 9.64389 2.59175 9.706 2.63316Z" fill="#A9E1FB"/>
<path d="M9.84265 2.76172C9.84679 2.76586 9.85507 2.77 9.85921 2.77828C9.85507 2.77 9.84679 2.77 9.84265 2.76172Z" fill="#A9E1FB"/>
<path d="M19.8923 10.0786C19.942 9.95435 19.9172 9.81357 19.8219 9.71833L17.176 7.07236C17.0476 6.94814 16.8406 6.94814 16.7122 7.0765C16.5838 7.20487 16.5838 7.41191 16.7081 7.54027L18.7909 9.62309H14.6253V1.02267C14.6253 0.476091 14.1822 0.0288861 13.6315 0.0288861H1.61076C1.23395 -0.0539297 0.840575 0.0371676 0.542439 0.281474C0.244302 0.52164 0.0703888 0.886029 0.0703888 1.27112V16.7287C0.0703888 17.1759 0.368525 17.5651 0.799167 17.6852L9.06832 19.9626C9.36646 20.0455 9.68944 19.9833 9.93374 19.797C10.1822 19.6107 10.3271 19.3167 10.323 19.0061V17.8922H13.6315C14.178 17.8922 14.6253 17.4492 14.6253 16.8985V10.2856H18.7867L16.7039 12.3684C16.617 12.4512 16.5838 12.5755 16.6128 12.6914C16.6418 12.8074 16.7329 12.8985 16.8489 12.9274C16.9648 12.9564 17.089 12.9233 17.1718 12.8363L19.8178 10.1904C19.8509 10.1573 19.8758 10.12 19.8923 10.0786ZM13.9627 1.02267V9.62309H10.323V3.18002C10.323 2.77009 10.0662 2.40156 9.6853 2.25663C9.65631 2.24421 9.62318 2.23178 9.5942 2.2235L4.0414 0.691412H13.6315C13.8137 0.691412 13.9627 0.84048 13.9627 1.02267ZM9.66459 19.0061C9.66459 19.1096 9.6149 19.209 9.53623 19.2711C9.45341 19.3332 9.34575 19.3539 9.24637 19.325L0.977221 17.0475C0.832294 17.0061 0.732915 16.8777 0.732915 16.7287V1.27112C0.732915 1.08065 0.819871 0.898451 0.97308 0.782509C1.12629 0.666567 1.32505 0.6293 1.51138 0.67899L9.42029 2.85704C9.56521 2.89845 9.66459 3.02682 9.66459 3.17588V19.0061ZM13.9627 16.8985C13.9627 17.0806 13.8137 17.2297 13.6315 17.2297H10.323V10.2856H13.9627V16.8985Z" fill="#0097DC"/>
</g>
<defs>
<clipPath id="clip0_38_1318">
<rect width="20" height="20" fill="white"/>
</clipPath>
</defs>
</svg>
