<svg width="20" height="20" viewBox="0 0 20 20" fill="none" xmlns="http://www.w3.org/2000/svg">
<path d="M10 0C4.47917 0 0 4.47917 0 10C0 15.5208 4.47917 20 10 20C10.3 20 10.6 19.9875 10.9 19.9583C11.1792 19.9333 11.4542 19.8958 11.725 19.8458L11.8292 19.8292C16.9083 18.8833 20.4292 14.2208 19.9542 9.07917C19.4792 3.9375 15.1667 0 10 0ZM9.19583 19.3H9.17083C8.9125 19.275 8.65417 19.2417 8.4 19.2C8.38333 19.1958 8.37083 19.1958 8.35833 19.1917C8.10833 19.1458 7.8625 19.0917 7.61667 19.0292L7.55833 19.0125C7.32083 18.9458 7.08333 18.8708 6.85417 18.7875C6.82917 18.7792 6.80417 18.7708 6.78333 18.7625C6.55417 18.6792 6.33333 18.5833 6.1125 18.4833C6.08333 18.4708 6.05833 18.4583 6.02917 18.4458C5.8125 18.3458 5.6 18.2333 5.39167 18.1167C5.3625 18.1 5.33333 18.0833 5.30417 18.0667C5.1 17.9458 4.9 17.8208 4.70417 17.6833C4.675 17.6625 4.64583 17.6417 4.61667 17.6208C4.425 17.4833 4.2375 17.3375 4.05417 17.1875L4.00417 17.1417V14.3333C4.00833 12.3083 5.64583 10.6708 7.67083 10.6667H12.3375C14.3625 10.6708 16 12.3083 16.0042 14.3333V17.1458L15.9583 17.1833C15.7708 17.3375 15.5792 17.4875 15.3833 17.625C15.3583 17.6417 15.3292 17.6625 15.3042 17.6792C15.1042 17.8167 14.9042 17.9458 14.6958 18.0667C14.6708 18.0833 14.6417 18.0958 14.6167 18.1125C14.4042 18.2333 14.1917 18.3458 13.975 18.4458C13.95 18.4583 13.925 18.4667 13.9 18.4792C13.6792 18.5833 13.4542 18.675 13.225 18.7583C13.2042 18.7667 13.1792 18.775 13.1583 18.7833C12.925 18.8667 12.6875 18.9417 12.45 19.0083L12.3917 19.0208C12.1458 19.0875 11.9 19.1417 11.65 19.1875C11.6375 19.1917 11.6208 19.1917 11.6083 19.1958C11.3542 19.2417 11.0958 19.275 10.8375 19.3H10.8125C10.5458 19.325 10.2792 19.3333 10.0083 19.3333C9.7375 19.3333 9.4625 19.3208 9.19583 19.3ZM16.6667 16.525V14.3333C16.6625 11.9417 14.725 10.0042 12.3333 10H7.66667C5.275 10.0042 3.3375 11.9417 3.33333 14.3333V16.525C-0.258333 12.8625 -0.216667 6.9875 3.42083 3.37083C7.0625 -0.245833 12.9375 -0.245833 16.575 3.37083C20.2167 6.9875 20.2583 12.8625 16.6667 16.525Z" fill="#0097DC"/>
<path d="M10 2.6665C8.15834 2.6665 6.66667 4.15817 6.66667 5.99984C6.66667 7.8415 8.15834 9.33317 10 9.33317C11.8417 9.33317 13.3333 7.8415 13.3333 5.99984C13.3333 4.15817 11.8417 2.6665 10 2.6665ZM10 8.6665C8.52917 8.6665 7.33334 7.47067 7.33334 5.99984C7.33334 4.529 8.52917 3.33317 10 3.33317C11.4708 3.33317 12.6667 4.529 12.6667 5.99984C12.6667 7.47067 11.4708 8.6665 10 8.6665Z" fill="#0097DC"/>
</svg>
